…
We can also send regular SQL queries using the sql function.

res <- tbl(con, sql("select name, year from sets"))
res
dim(res)

If you notice there is something different about the output when printing the res object returned by our query. It isn’t in memory and the dim function doesn’t return the number of rows. Similar to using dbFetch, you have to tell dplyr to return the results using collect.

# Collect data
res <- tbl(con, sql("select name, year from sets")) %>% collect
res

## # A tibble: 11,673 x 2
##                            name  year
##  *                        <chr> <int>
##  1              Weetabix Castle  1970
##  2            Town Mini-Figures  1978
##  3   Castle 2 for 1 Bonus Offer  1987
##  4           Space Mini-Figures  1979
##  5           Space Mini-Figures  1979
##  6           Space Mini-Figures  1979
##  7           Space Mini-Figures  1979
##  8          Castle Mini Figures  1978
##  9 Weetabix Promotional House 1  1976
## 10 Weetabix Promotional House 2  1976
## # ... with 11,663 more rows
…
